<?xml version="1.0" encoding="iso-8859-1"?>
<!DOCTYPE svg PUBLIC "-//W3C//DTD SVG 1.1//EN" "http://www.w3.org/Graphics/SVG/1.1/DTD/svg11.dtd">
<svg 
 version="1.1" xmlns="http://www.w3.org/2000/svg" xmlns:xlink="http://www.w3.org/1999/xlink" x="0px" y="0px" width="512px"
	 height="512px" viewBox="0 0 512 512" style="enable-background:new 0 0 512 512;" xml:space="preserve"
><g id="afcae5a789ccd549f9c6e2a2f80dc471"><g></g><path style="display: inline; fill:#467fd7;" d="M256,0.5C114.893,0.5,0.5,114.893,0.5,256S114.893,511.5,256,511.5
		S511.5,397.107,511.5,256S397.107,0.5,256,0.5z M234.708,149.542h42.583v42.583h-42.583V149.542z M298.583,362.458h-21.291h-42.583
		h-21.292v-21.291h21.292V234.708h-21.292v-21.292h21.292h42.583v21.292v106.458h21.291V362.458z"></path></g></svg>